EESchema Schematic File Version 4
EELAYER 30 0
EELAYER END
$Descr A4 11693 8268
encoding utf-8
Sheet 1 1
Title ""
Date ""
Rev ""
Comp ""
Comment1 ""
Comment2 ""
Comment3 ""
Comment4 ""
$EndDescr
$Comp
L MCU_RaspberryPi_and_Boards:Pico U1
U 1 1 617B46D0
P 2250 2350
F 0 "U1" H 2250 3565 50  0000 C CNN
F 1 "Pico" H 2250 3474 50  0000 C CNN
F 2 "MCU_RaspberryPi_and_Boards:RPi_Pico_SMD_TH" V 2250 2350 50  0001 C CNN
F 3 "" H 2250 2350 50  0001 C CNN
	1    2250 2350
	1    0    0    -1  
$EndComp
Wire Wire Line
	2950 1600 3900 1600
Wire Wire Line
	3900 4150 2250 4150
Wire Wire Line
	900  4150 900  3100
Wire Wire Line
	900  1600 1550 1600
Wire Wire Line
	1550 2100 900  2100
Connection ~ 900  2100
Wire Wire Line
	900  2100 900  1600
Wire Wire Line
	1550 2600 900  2600
Connection ~ 900  2600
Wire Wire Line
	900  2600 900  2100
Wire Wire Line
	1550 3100 900  3100
Connection ~ 900  3100
Wire Wire Line
	900  3100 900  2600
Wire Wire Line
	2250 3500 2250 4150
Connection ~ 2250 4150
Wire Wire Line
	2250 4150 900  4150
Wire Wire Line
	2950 2600 3900 2600
Connection ~ 3900 2600
Wire Wire Line
	3900 2600 3900 3100
Wire Wire Line
	2950 3100 3900 3100
Connection ~ 3900 3100
Wire Wire Line
	3900 3100 3900 4150
$Comp
L power:GND #PWR0101
U 1 1 617B7083
P 2250 4400
F 0 "#PWR0101" H 2250 4150 50  0001 C CNN
F 1 "GND" H 2255 4227 50  0000 C CNN
F 2 "" H 2250 4400 50  0001 C CNN
F 3 "" H 2250 4400 50  0001 C CNN
	1    2250 4400
	1    0    0    -1  
$EndComp
Wire Wire Line
	2250 4150 2250 4400
$Comp
L Device:R_POT_US RV1
U 1 1 617B78BE
P 4750 2000
F 0 "RV1" H 4682 1954 50  0000 R CNN
F 1 "10K" H 4682 2045 50  0000 R CNN
F 2 "Potentiometer_THT:Potentiometer_Alps_RK097_Single_Horizontal" H 4750 2000 50  0001 C CNN
F 3 "~" H 4750 2000 50  0001 C CNN
	1    4750 2000
	-1   0    0    1   
$EndComp
$Comp
L Device:R_POT_US RV3
U 1 1 617BA218
P 5350 2600
F 0 "RV3" H 5282 2554 50  0000 R CNN
F 1 "10K" H 5282 2645 50  0000 R CNN
F 2 "Potentiometer_THT:Potentiometer_Alps_RK097_Single_Horizontal" H 5350 2600 50  0001 C CNN
F 3 "~" H 5350 2600 50  0001 C CNN
	1    5350 2600
	-1   0    0    1   
$EndComp
Wire Wire Line
	2950 2000 4600 2000
$Comp
L Device:R_POT_US RV2
U 1 1 617B90C4
P 5050 2300
F 0 "RV2" H 4982 2254 50  0000 R CNN
F 1 "10K" H 4982 2345 50  0000 R CNN
F 2 "Potentiometer_THT:Potentiometer_Alps_RK097_Single_Horizontal" H 5050 2300 50  0001 C CNN
F 3 "~" H 5050 2300 50  0001 C CNN
	1    5050 2300
	-1   0    0    1   
$EndComp
Wire Wire Line
	2950 2200 4450 2200
Wire Wire Line
	4450 2200 4450 2300
Wire Wire Line
	4450 2300 4900 2300
Wire Wire Line
	5200 2600 4350 2600
Wire Wire Line
	4350 2600 4350 2300
Wire Wire Line
	4350 2300 2950 2300
Wire Wire Line
	4750 2150 4750 3250
Wire Wire Line
	4750 3250 5050 3250
Wire Wire Line
	5350 3250 5350 2750
Wire Wire Line
	5050 2450 5050 3250
Connection ~ 5050 3250
Wire Wire Line
	5050 3250 5350 3250
Wire Wire Line
	5350 2450 5350 1400
Wire Wire Line
	5350 1400 5050 1400
Wire Wire Line
	4750 1400 4750 1850
Wire Wire Line
	5050 2150 5050 1400
Connection ~ 5050 1400
Wire Wire Line
	5050 1400 4750 1400
$Comp
L power:+3.3V #PWR0102
U 1 1 617BDEC2
P 5050 1300
F 0 "#PWR0102" H 5050 1150 50  0001 C CNN
F 1 "+3.3V" H 5065 1473 50  0000 C CNN
F 2 "" H 5050 1300 50  0001 C CNN
F 3 "" H 5050 1300 50  0001 C CNN
	1    5050 1300
	1    0    0    -1  
$EndComp
$Comp
L power:+3.3V #PWR0103
U 1 1 617BE9DA
P 3500 1500
F 0 "#PWR0103" H 3500 1350 50  0001 C CNN
F 1 "+3.3V" H 3515 1673 50  0000 C CNN
F 2 "" H 3500 1500 50  0001 C CNN
F 3 "" H 3500 1500 50  0001 C CNN
	1    3500 1500
	1    0    0    -1  
$EndComp
Wire Wire Line
	5050 1300 5050 1400
Wire Wire Line
	3500 1500 3500 1800
Wire Wire Line
	3500 1800 2950 1800
Wire Wire Line
	3900 1600 3900 2600
Wire Wire Line
	2950 2100 4250 2100
Wire Wire Line
	4250 2100 4250 3500
Wire Wire Line
	4250 3500 4600 3500
$Comp
L power:GNDA #PWR0104
U 1 1 617C2025
P 4600 3500
F 0 "#PWR0104" H 4600 3250 50  0001 C CNN
F 1 "GNDA" H 4605 3327 50  0000 C CNN
F 2 "" H 4600 3500 50  0001 C CNN
F 3 "" H 4600 3500 50  0001 C CNN
	1    4600 3500
	1    0    0    -1  
$EndComp
Connection ~ 4600 3500
Wire Wire Line
	4600 3500 5050 3500
$Comp
L power:+5V #PWR0105
U 1 1 617C275F
P 3150 1400
F 0 "#PWR0105" H 3150 1250 50  0001 C CNN
F 1 "+5V" H 3165 1573 50  0000 C CNN
F 2 "" H 3150 1400 50  0001 C CNN
F 3 "" H 3150 1400 50  0001 C CNN
	1    3150 1400
	1    0    0    -1  
$EndComp
Wire Wire Line
	2950 1500 3150 1500
Wire Wire Line
	3150 1500 3150 1400
Wire Wire Line
	5050 3250 5050 3500
$Comp
L Device:C C6
U 1 1 617C65D6
P 7100 1850
F 0 "C6" H 7215 1896 50  0000 L CNN
F 1 "10uF" H 7215 1805 50  0000 L CNN
F 2 "Capacitor_SMD:C_0805_2012Metric" H 7138 1700 50  0001 C CNN
F 3 "~" H 7100 1850 50  0001 C CNN
	1    7100 1850
	1    0    0    -1  
$EndComp
$Comp
L Device:C C5
U 1 1 617C6C4E
P 6250 1850
F 0 "C5" H 6365 1896 50  0000 L CNN
F 1 "10uF" H 6365 1805 50  0000 L CNN
F 2 "Capacitor_SMD:C_0805_2012Metric" H 6288 1700 50  0001 C CNN
F 3 "~" H 6250 1850 50  0001 C CNN
	1    6250 1850
	1    0    0    -1  
$EndComp
$Comp
L Device:CP C4
U 1 1 617C7065
P 5950 1850
F 0 "C4" H 6068 1896 50  0000 L CNN
F 1 "100uF" H 6068 1805 50  0000 L CNN
F 2 "components:Chemi-Con-HA0" H 5988 1700 50  0001 C CNN
F 3 "~" H 5950 1850 50  0001 C CNN
	1    5950 1850
	1    0    0    -1  
$EndComp
Wire Wire Line
	6350 1700 6250 1700
Connection ~ 6250 1700
Wire Wire Line
	6250 1700 5950 1700
Wire Wire Line
	5950 2000 6250 2000
Connection ~ 6250 2000
Wire Wire Line
	6250 2000 6650 2000
Connection ~ 6650 2000
Wire Wire Line
	6650 2000 7100 2000
Wire Wire Line
	7100 1700 6950 1700
$Comp
L power:+5V #PWR0106
U 1 1 617C965D
P 7100 1700
F 0 "#PWR0106" H 7100 1550 50  0001 C CNN
F 1 "+5V" H 7115 1873 50  0000 C CNN
F 2 "" H 7100 1700 50  0001 C CNN
F 3 "" H 7100 1700 50  0001 C CNN
	1    7100 1700
	1    0    0    -1  
$EndComp
Connection ~ 7100 1700
$Comp
L power:+12V #PWR0107
U 1 1 617C9CE8
P 5950 1700
F 0 "#PWR0107" H 5950 1550 50  0001 C CNN
F 1 "+12V" H 5965 1873 50  0000 C CNN
F 2 "" H 5950 1700 50  0001 C CNN
F 3 "" H 5950 1700 50  0001 C CNN
	1    5950 1700
	1    0    0    -1  
$EndComp
Connection ~ 5950 1700
$Comp
L power:GND #PWR0108
U 1 1 617CA37A
P 6650 2000
F 0 "#PWR0108" H 6650 1750 50  0001 C CNN
F 1 "GND" H 6655 1827 50  0000 C CNN
F 2 "" H 6650 2000 50  0001 C CNN
F 3 "" H 6650 2000 50  0001 C CNN
	1    6650 2000
	1    0    0    -1  
$EndComp
$Comp
L Regulator_Linear:LD1117S50TR_SOT223 U2
U 1 1 617D4A47
P 6650 1700
F 0 "U2" H 6650 1942 50  0000 C CNN
F 1 "LD1117S50TR_SOT223" H 6650 1851 50  0000 C CNN
F 2 "Package_TO_SOT_SMD:SOT-223-3_TabPin2" H 6650 1900 50  0001 C CNN
F 3 "http://www.st.com/st-web-ui/static/active/en/resource/technical/document/datasheet/CD00000544.pdf" H 6750 1450 50  0001 C CNN
	1    6650 1700
	1    0    0    -1  
$EndComp
$Comp
L Transistor_FET:IRLML0030 Q2
U 1 1 617D7356
P 5150 5100
F 0 "Q2" H 5354 5146 50  0000 L CNN
F 1 "IRLML0030" H 5354 5055 50  0000 L CNN
F 2 "Package_TO_SOT_SMD:SOT-23" H 5350 5025 50  0001 L CIN
F 3 "https://www.infineon.com/dgdl/irlml0030pbf.pdf?fileId=5546d462533600a401535664773825df" H 5150 5100 50  0001 L CNN
	1    5150 5100
	1    0    0    -1  
$EndComp
Text GLabel 6250 5100 0    50   Output ~ 0
FAN1_PWM
Text GLabel 4950 5100 0    50   Output ~ 0
FAN0_PWM
Text GLabel 3550 5100 0    50   Output ~ 0
LED_PWM
$Comp
L Transistor_FET:IRLML0030 Q3
U 1 1 617DC924
P 6450 5100
F 0 "Q3" H 6654 5146 50  0000 L CNN
F 1 "IRLML0030" H 6654 5055 50  0000 L CNN
F 2 "Package_TO_SOT_SMD:SOT-23" H 6650 5025 50  0001 L CIN
F 3 "https://www.infineon.com/dgdl/irlml0030pbf.pdf?fileId=5546d462533600a401535664773825df" H 6450 5100 50  0001 L CNN
	1    6450 5100
	1    0    0    -1  
$EndComp
$Comp
L Device:Q_NMOS_GDS Q1
U 1 1 617DEF06
P 3750 5100
F 0 "Q1" H 3954 5146 50  0000 L CNN
F 1 "STL56N3LLH5" H 3954 5055 50  0000 L CNN
F 2 "components:PowerFLAT" H 3950 5200 50  0001 C CNN
F 3 "~" H 3750 5100 50  0001 C CNN
	1    3750 5100
	1    0    0    -1  
$EndComp
Wire Wire Line
	3850 5300 5250 5300
Connection ~ 5250 5300
Wire Wire Line
	5250 5300 6550 5300
$Comp
L power:GND #PWR0109
U 1 1 617FA5ED
P 5250 5300
F 0 "#PWR0109" H 5250 5050 50  0001 C CNN
F 1 "GND" H 5255 5127 50  0000 C CNN
F 2 "" H 5250 5300 50  0001 C CNN
F 3 "" H 5250 5300 50  0001 C CNN
	1    5250 5300
	1    0    0    -1  
$EndComp
Text GLabel 3900 4850 2    50   Output ~ 0
LED_DRAIN
Text GLabel 5300 4850 2    50   Output ~ 0
FAN0_DRAIN
Text GLabel 6600 4850 2    50   Output ~ 0
FAN1_DRAIN
Wire Wire Line
	3850 4900 3850 4850
Wire Wire Line
	3850 4850 3900 4850
Wire Wire Line
	5250 4900 5250 4850
Wire Wire Line
	5250 4850 5300 4850
Wire Wire Line
	6550 4900 6550 4850
Wire Wire Line
	6550 4850 6600 4850
Text GLabel 1550 1800 0    50   Output ~ 0
LED_PWM
Text GLabel 1550 1900 0    50   Output ~ 0
FAN0_PWM
Text GLabel 1550 2000 0    50   Output ~ 0
FAN1_PWM
Text GLabel 6600 2700 0    50   Output ~ 0
LED_DRAIN
Text GLabel 6700 3550 0    50   Output ~ 0
FAN0_DRAIN
Text GLabel 6700 4250 0    50   Output ~ 0
FAN1_DRAIN
$Comp
L Connector:Screw_Terminal_01x02 J4
U 1 1 6180BE19
P 6950 2600
F 0 "J4" H 7030 2592 50  0000 L CNN
F 1 "Screw_Terminal_01x02" H 7030 2501 50  0000 L CNN
F 2 "TerminalBlock:TerminalBlock_bornier-2_P5.08mm" H 6950 2600 50  0001 C CNN
F 3 "~" H 6950 2600 50  0001 C CNN
	1    6950 2600
	1    0    0    -1  
$EndComp
$Comp
L power:+12V #PWR0110
U 1 1 6180D826
P 6750 2600
F 0 "#PWR0110" H 6750 2450 50  0001 C CNN
F 1 "+12V" H 6765 2773 50  0000 C CNN
F 2 "" H 6750 2600 50  0001 C CNN
F 3 "" H 6750 2600 50  0001 C CNN
	1    6750 2600
	1    0    0    -1  
$EndComp
Wire Wire Line
	6600 2700 6750 2700
$Comp
L Connector_Generic:Conn_01x04 J2
U 1 1 6180F512
P 6900 3350
F 0 "J2" H 6980 3342 50  0000 L CNN
F 1 "Conn_01x04" H 6980 3251 50  0000 L CNN
F 2 "Connector:FanPinHeader_1x04_P2.54mm_Vertical" H 6900 3350 50  0001 C CNN
F 3 "~" H 6900 3350 50  0001 C CNN
	1    6900 3350
	1    0    0    -1  
$EndComp
$Comp
L Connector_Generic:Conn_01x04 J3
U 1 1 6181029B
P 6900 4050
F 0 "J3" H 6980 4042 50  0000 L CNN
F 1 "Conn_01x04" H 6980 3951 50  0000 L CNN
F 2 "Connector:FanPinHeader_1x04_P2.54mm_Vertical" H 6900 4050 50  0001 C CNN
F 3 "~" H 6900 4050 50  0001 C CNN
	1    6900 4050
	1    0    0    -1  
$EndComp
Wire Wire Line
	6700 3250 6700 3150
Wire Wire Line
	6700 3150 7500 3150
Wire Wire Line
	7500 3150 7500 3850
Wire Wire Line
	7500 3850 6700 3850
Wire Wire Line
	6700 3850 6700 3950
$Comp
L power:GND #PWR0111
U 1 1 618157EF
P 7500 3850
F 0 "#PWR0111" H 7500 3600 50  0001 C CNN
F 1 "GND" H 7505 3677 50  0000 C CNN
F 2 "" H 7500 3850 50  0001 C CNN
F 3 "" H 7500 3850 50  0001 C CNN
	1    7500 3850
	1    0    0    -1  
$EndComp
Connection ~ 7500 3850
Wire Wire Line
	6700 3350 6500 3350
Wire Wire Line
	6500 3350 6500 4050
Wire Wire Line
	6500 4050 6700 4050
$Comp
L power:+12V #PWR0112
U 1 1 61816FD9
P 6500 3350
F 0 "#PWR0112" H 6500 3200 50  0001 C CNN
F 1 "+12V" H 6515 3523 50  0000 C CNN
F 2 "" H 6500 3350 50  0001 C CNN
F 3 "" H 6500 3350 50  0001 C CNN
	1    6500 3350
	1    0    0    -1  
$EndComp
Connection ~ 6500 3350
$Comp
L Device:CP C2
U 1 1 6181B317
P 5900 2550
F 0 "C2" H 6018 2596 50  0000 L CNN
F 1 "100uF" H 6018 2505 50  0000 L CNN
F 2 "components:Chemi-Con-HA0" H 5938 2400 50  0001 C CNN
F 3 "~" H 5900 2550 50  0001 C CNN
	1    5900 2550
	1    0    0    -1  
$EndComp
$Comp
L power:+12V #PWR0113
U 1 1 6181CC01
P 5900 2400
F 0 "#PWR0113" H 5900 2250 50  0001 C CNN
F 1 "+12V" H 5915 2573 50  0000 C CNN
F 2 "" H 5900 2400 50  0001 C CNN
F 3 "" H 5900 2400 50  0001 C CNN
	1    5900 2400
	1    0    0    -1  
$EndComp
$Comp
L power:GND #PWR0114
U 1 1 6181D052
P 5900 2700
F 0 "#PWR0114" H 5900 2450 50  0001 C CNN
F 1 "GND" H 5905 2527 50  0000 C CNN
F 2 "" H 5900 2700 50  0001 C CNN
F 3 "" H 5900 2700 50  0001 C CNN
	1    5900 2700
	1    0    0    -1  
$EndComp
$Comp
L Device:CP C3
U 1 1 6181FF14
P 5900 3400
F 0 "C3" H 6018 3446 50  0000 L CNN
F 1 "100uF" H 6018 3355 50  0000 L CNN
F 2 "components:Chemi-Con-HA0" H 5938 3250 50  0001 C CNN
F 3 "~" H 5900 3400 50  0001 C CNN
	1    5900 3400
	1    0    0    -1  
$EndComp
$Comp
L power:+12V #PWR0115
U 1 1 6181FF1E
P 5900 3250
F 0 "#PWR0115" H 5900 3100 50  0001 C CNN
F 1 "+12V" H 5915 3423 50  0000 C CNN
F 2 "" H 5900 3250 50  0001 C CNN
F 3 "" H 5900 3250 50  0001 C CNN
	1    5900 3250
	1    0    0    -1  
$EndComp
$Comp
L power:GND #PWR0116
U 1 1 6181FF28
P 5900 3550
F 0 "#PWR0116" H 5900 3300 50  0001 C CNN
F 1 "GND" H 5905 3377 50  0000 C CNN
F 2 "" H 5900 3550 50  0001 C CNN
F 3 "" H 5900 3550 50  0001 C CNN
	1    5900 3550
	1    0    0    -1  
$EndComp
$Comp
L Device:CP C1
U 1 1 6182201C
P 5800 4200
F 0 "C1" H 5918 4246 50  0000 L CNN
F 1 "100uF" H 5918 4155 50  0000 L CNN
F 2 "components:Chemi-Con-HA0" H 5838 4050 50  0001 C CNN
F 3 "~" H 5800 4200 50  0001 C CNN
	1    5800 4200
	1    0    0    -1  
$EndComp
$Comp
L power:+12V #PWR0117
U 1 1 61822026
P 5800 4050
F 0 "#PWR0117" H 5800 3900 50  0001 C CNN
F 1 "+12V" H 5815 4223 50  0000 C CNN
F 2 "" H 5800 4050 50  0001 C CNN
F 3 "" H 5800 4050 50  0001 C CNN
	1    5800 4050
	1    0    0    -1  
$EndComp
$Comp
L power:GND #PWR0118
U 1 1 61822030
P 5800 4350
F 0 "#PWR0118" H 5800 4100 50  0001 C CNN
F 1 "GND" H 5805 4177 50  0000 C CNN
F 2 "" H 5800 4350 50  0001 C CNN
F 3 "" H 5800 4350 50  0001 C CNN
	1    5800 4350
	1    0    0    -1  
$EndComp
$Comp
L Connector:Barrel_Jack_MountingPin J1
U 1 1 6182593F
P 1250 5200
F 0 "J1" H 1307 5517 50  0000 C CNN
F 1 "Barrel_Jack_MountingPin" H 1307 5426 50  0000 C CNN
F 2 "Connector_BarrelJack:BarrelJack_Horizontal" H 1300 5160 50  0001 C CNN
F 3 "~" H 1300 5160 50  0001 C CNN
	1    1250 5200
	1    0    0    -1  
$EndComp
$Comp
L power:GND #PWR0119
U 1 1 61826C31
P 1550 5300
F 0 "#PWR0119" H 1550 5050 50  0001 C CNN
F 1 "GND" H 1555 5127 50  0000 C CNN
F 2 "" H 1550 5300 50  0001 C CNN
F 3 "" H 1550 5300 50  0001 C CNN
	1    1550 5300
	1    0    0    -1  
$EndComp
$Comp
L power:+12V #PWR0120
U 1 1 618270F7
P 1550 5100
F 0 "#PWR0120" H 1550 4950 50  0001 C CNN
F 1 "+12V" H 1565 5273 50  0000 C CNN
F 2 "" H 1550 5100 50  0001 C CNN
F 3 "" H 1550 5100 50  0001 C CNN
	1    1550 5100
	1    0    0    -1  
$EndComp
$EndSCHEMATC
